Preceptor’s Primer for Bayesian Data Science: Using the Cardinal Virtues for Inference - 3 Data
…
aboriginal_lang_data <- collect(aboriginal_lang_db)
aboriginal_lang_data

# A tibble: 67 × 6
   category          language mother_tongue most_at_home most_at_work lang_known
   <chr>             <chr>            <dbl>        <dbl>        <dbl>      <dbl>
 1 Aboriginal langu… Aborigi…           590          235           30        665
 2 Aboriginal langu… Algonqu…            45           10            0        120
 3 Aboriginal langu… Algonqu…          1260          370           40       2480
 4 Aboriginal langu… Athabas…            50           10            0         85
 5 Aboriginal langu… Atikame…          6150         5465         1100       6645
 6 Aboriginal langu… Babine …           110           20           10        210
 7 Aboriginal langu… Beaver             190           50            0        340
 8 Aboriginal langu… Blackfo…          2815         1110           85       5645
 9 Aboriginal langu… Carrier           1025          250           15       2100
10 Aboriginal langu… Cayuga              45           10           10        125
# ℹ 57 more rows
…
