Preceptor’s Primer for Bayesian Data Science: Using the Cardinal Virtues for Inference - 2 Probability
…
The full terminology is mathematical (or empirical or posterior) probability distribution. But we will often shorten this to just mathematical (or empirical or posterior) distribution. The word “probability” is understood, even if it is not present.

Recall the question with which we started this section: What are the chances of getting three heads in a row when flipping a fair coin? To answer this question, we need to use a probability distribution as our data generating mechanism. Fortunately, the rbinom() function allows us to generate the results for coin flips. For example:

rbinom(n = 10, size = 1, prob = 0.5)

 [1] 1 1 0 1 1 0 0 0 0 0

generates the results of 10 coin flips, where a result of heads is presented as 1 and tails as 0. With this tool, we can generate 1,000 draws from our experiment:

tibble(toss_1 = rbinom(n = 1000, size = 1, prob = 0.5),
       toss_2 = rbinom(n = 1000, size = 1, prob = 0.5),
       toss_3 = rbinom(n = 1000, size = 1, prob = 0.5))

# A tibble: 1,000 × 3
   toss_1 toss_2 toss_3
    <int>  <int>  <int>
 1      0      1      1
 2      0      1      1
 3      0      1      0
 4      0      0      1
 5      1      1      0
 6      1      0      1
 7      1      0      0
 8      1      0      1
 9      0      0      1
10      0      1      1
# ℹ 990 more rows
…
sims <- 10000

jd_disease <- tibble(ID = 1:sims, have_disease = rep(c(TRUE, FALSE), 5000)) |>
  mutate(positive_test =
           if_else(have_disease,
                   map_int(have_disease, ~ rbinom(n = 1, size = 1, p = 0.99)),
                   map_int(have_disease, ~ rbinom(n = 1, size = 1, p = 0.5))))

jd_disease

# A tibble: 10,000 × 3
      ID have_disease positive_test
   <int> <lgl>                <int>
 1     1 TRUE                     1
 2     2 FALSE                    1
 3     3 TRUE                     1
 4     4 FALSE                    1
 5     5 TRUE                     1
 6     6 FALSE                    0
 7     7 TRUE                     1
 8     8 FALSE                    1
 9     9 TRUE                     1
10    10 FALSE                    0
# ℹ 9,990 more rows
…
This Section is called “Two Models” because, for each person, there are two possible states of the world: have the disease or not have the disease. By assumption, there are no other outcomes. We call these two possible states of the world “models,” even though they are very simple models.

In addition to the two models, we have two possible results of our experiment on a given person: test positive or test negative. Again, this is an assumption. We do not allow for any other outcome. In coming sections, we will look at more complex situations where we consider more than two models and more than two possible results of the experiment. In the meantime, we have built the unnormalized joint distribution for models and results. This is a key point! Look back earlier in this Chapter for discussions about both unnormalized distributions and joint distributions.

We want to analyze these plots by looking at different slices. For instance, let’s say that you have tested positive for the disease. Since the test is not always accurate, you cannot be 100% certain that you have it. We isolate the slice where the test result equals 1 (meaning positive).

jd_disease |> 
  filter(positive_test == 1)

# A tibble: 7,484 × 3
      ID have_disease positive_test
   <int> <lgl>                <int>
 1     1 TRUE                     1
 2     2 FALSE                    1
 3     3 TRUE                     1
 4     4 FALSE                    1
 5     5 TRUE                     1
 6     7 TRUE                     1
 7     8 FALSE                    1
 8     9 TRUE                     1
 9    11 TRUE                     1
10    12 FALSE                    1
# ℹ 7,474 more rows
…
  mutate(in_bag = map_int(ID, ~ as.integer(sample(c(0, 1, 2), 
                                                  size = 1)))) |>
  
  # Depending on the number of white marbles in the bag, we randomly draw out 0,
  # 1, 2, or 3 white marbles in our experiment. We need `p = ./2` to transform
  # the number of white marbles into the probability of drawing out a white
  # marble in a single draw. That probability is either 0%, 50% or 100%.
  
  mutate(in_sample = map_int(in_bag, ~ rbinom(n = 1, 
                                              size = 3, 
                                              p = ./2))) 

jd_marbles

# A tibble: 10,000 × 3
      ID in_bag in_sample
   <int>  <int>     <int>
 1     1      0         0
 2     2      1         3
 3     3      2         3
 4     4      1         1
 5     5      2         3
 6     6      2         3
 7     7      1         0
 8     8      2         3
 9     9      0         0
10    10      1         2
# ℹ 9,990 more rows
…
You might be wondering: what is the use of a model? Well, let’s say we toss the coin 20 times and get 8 heads again. Given this result, we can ask: What is the probability that future samples of 20 flips will result in 10 or more heads?

There are three main ways you could go about solving this problem with simulations.

The first wrong way to do this is assuming that \(\rho_h\) is certain because we observed 8 heads after 20 tosses. We would conclude that 8/20 gives us 0.4. The big problem with this is that you are ignoring your uncertainty when estimating \(\rho_h\). This would lead us to the following code.

sims <- 10000000

odds <- tibble(sim_ID = 1:sims) |>
  mutate(heads = map_int(sim_ID, ~ rbinom(n = 1, size = 20, p = .4))) |> 
  mutate(above_ten = if_else(heads >= 10, TRUE, FALSE))

odds

# A tibble: 10,000,000 × 3
   sim_ID heads above_ten
    <int> <int> <lgl>    
 1      1    10 TRUE     
 2      2     5 FALSE    
 3      3     2 FALSE    
 4      4    10 TRUE     
 5      5     5 FALSE    
 6      6    10 TRUE     
 7      7     7 FALSE    
 8      8    11 TRUE     
 9      9     9 FALSE    
10     10     9 FALSE    
# ℹ 9,999,990 more rows
…
about 24.5%.

The second method involves sampling the whole posterior distribution vector we previously created. This would lead to the following correct code.

p_draws <- tibble(p = rep(seq(0, 1, 0.1), 1000)) |>
  mutate(heads = map_int(p, ~ rbinom(n = 1, size = 20, p = .))) |>
  filter(heads == 8)
  
odds_2nd <- tibble(p = sample(p_draws$p, size = sims, replace = TRUE)) |>
  mutate(heads = map_int(p, ~ rbinom(n = 1, size = 20, p = .))) |> 
  mutate(above_ten = if_else(heads >= 10, TRUE, FALSE)) 

odds_2nd

# A tibble: 10,000,000 × 3
       p heads above_ten
   <dbl> <int> <lgl>    
 1   0.4     7 FALSE    
 2   0.3     8 FALSE    
 3   0.5    13 TRUE     
 4   0.4    10 TRUE     
 5   0.4     6 FALSE    
 6   0.5     8 FALSE    
 7   0.5     9 FALSE    
 8   0.5    12 TRUE     
 9   0.5    10 TRUE     
10   0.4     8 FALSE    
# ℹ 9,999,990 more rows
…
Rules of thumb about areas under normal curves.

2.7.3 Summary statistics

A probability distribution is not always easy to work with. It is a complex object. And, in many contexts, we don’t really care about all that complexity. So, instead of providing the full probability distribution, we often just use a summary measure, a number or two or three which captures those aspects of the entire distribution which are relevant to the matter at hand. Let’s explore these issues using the 538 posterior probability distribution, as of August 13, 2020, for the number of electoral votes which will be won by Joe Biden. Here is a tibble with 1,000,000 draws from that distribution:

draws

# A tibble: 1,000,000 × 2
      ID electoral_votes
   <int>           <int>
 1     1             388
 2     2             474
 3     3             279
 4     4             400
 5     5             239
 6     6             364
 7     7             198
 8     8             319
 9     9             336
10    10             294
# ℹ 999,990 more rows
…
