Preceptor’s Primer for Bayesian Data Science: Using the Cardinal Virtues for Inference - 4 Two Parameters
…
nhanes includes 15 variables, including physical attributes like weight and height. Let’s restrict our attention to three varaibles: age, gender and height.

nhanes |> 
  select(age, gender, height)

# A tibble: 10,000 × 3
     age gender height
   <int> <chr>   <dbl>
 1    34 Male     165.
 2    34 Male     165.
 3    34 Male     165.
 4     4 Male     105.
 5    49 Female   168.
 6     9 Male     133.
 7     8 Male     131.
 8    45 Female   167.
 9    45 Female   167.
10    45 Female   167.
# ℹ 9,990 more rows
…
Now that we understand the meaning of Median and MAD_SD in the above display, we can interpret the actual numbers. The median of the intercept, 175.6, is the median of our posterior distribution for \(\mu\), the average height of all men in the population. The median of sigma, 8.5, is the median of our posterior distribution for the true \(\sigma\), which can be roughly understood as the variability in the height of men, once we account for our estimate of \(\mu\).

The MAD SD for each parameter is a measure of the variability of our posterior distributions for that parameter. How spread out are they? Speaking roughly, 95% of the mass of a posterior probability distribution is located within +/- 2 MAD SDs from the median. For example, we would be about 95% confident that the true value of \(\mu\) is somewhere between 173.2 and 178.

4.3.0.1.2 Plotting the posterior distributions

Instead of doing this math in our heads, we can display both posterior probability distributions. Pictures speak where math mumbles. Fortunately, getting draws from those posteriors is easy:

fit_obj |> 
  as_tibble()

# A tibble: 4,000 × 2
   `(Intercept)` sigma
           <dbl> <dbl>
 1          175.  8.34
 2          175.  8.16
 3          174.  8.26
 4          174.  8.25
 5          173.  9.43
 6          175.  9.24
 7          174.  8.47
 8          174.  8.26
 9          177.  8.71
10          173.  9.06
# ℹ 3,990 more rows
…
4.4.1 Question 1

What is the average height of men?

If we had the Preceptor Table, one with a row for every man alive, and with their actual height, we could calculate this number easily. Just take the average of those 3 billion or so rows! Alas, in our actual Preceptor Table, the vast majority of heights are missing. Question marks make simple algebra impossible. So, as with any unknown number, we need to estimate a posterior probability distribution. Objects created by stan_glm() make this easy to do.

newobs <- tibble(.rows = 1)

pe <- posterior_epred(object = fit_obj,
                      newdata = newobs) |> 
        as_tibble()

pe

# A tibble: 4,000 × 1
     `1`
   <dbl>
 1  175.
 2  175.
 3  174.
 4  174.
 5  173.
 6  175.
 7  174.
 8  174.
 9  177.
10  173.
# ℹ 3,990 more rows
…
Recall the mathematics:

\[ y_i =  \mu + \epsilon_i \]

With expected values or averages, we can ignore the \(\epsilon_i\) term in this formula. The expected value of \(\epsilon_i\) is zero since, by assumption, \(\epsilon_i \sim N(0, \sigma^2)\). However, we can’t ignore \(\epsilon_i\) when predicting the height for a single individual.

newobs <- tibble(.rows = 1)

pp <- posterior_predict(object = fit_obj,
                        newdata = newobs) |> 
        as_tibble()

pp

# A tibble: 4,000 × 1
     `1`
   <dbl>
 1  179.
 2  164.
 3  172.
 4  172.
 5  167.
 6  184.
 7  184.
 8  159.
 9  182.
10  168.
# ℹ 3,990 more rows
…
newobs <- tibble(.rows = 4)

newobs

# A tibble: 4 × 0

If you need to predict X individuals, then you need a tibble with X rows, regardless of whether or not those rows are otherwise identical.

pp <- posterior_predict(object = fit_obj,
                        newdata = newobs) |> 
        as_tibble() 

pp

# A tibble: 4,000 × 4
     `1`   `2`   `3`   `4`
   <dbl> <dbl> <dbl> <dbl>
 1  177.  170.  169.  164.
 2  178.  167.  164.  185.
 3  177.  180.  181.  170.
 4  174.  169.  166.  169.
 5  176.  191.  186.  165.
 6  173.  164.  160.  183.
 7  181.  199.  172.  157.
 8  169.  181.  174.  174.
 9  185.  180.  179.  170.
10  177.  184.  164.  164.
# ℹ 3,990 more rows
…
        rowwise() |> 
        mutate(tallest = max(c_across())) |> 
        mutate(shortest = min(c_across())) |> 
        mutate(diff = tallest - shortest) 

Warning: There was 1 warning in `mutate()`.
ℹ In argument: `tallest = max(c_across())`.
ℹ In row 1.
Caused by warning:
! Using `c_across()` without supplying `cols` was deprecated in dplyr 1.1.0.
ℹ Please supply `cols` instead.

pp        

# A tibble: 4,000 × 7
# Rowwise: 
     `1`   `2`   `3`   `4` tallest shortest  diff
   <dbl> <dbl> <dbl> <dbl>   <dbl>    <dbl> <dbl>
 1  167.  169.  159.  177.    177.     159.  17.6
 2  179.  187.  178.  170.    187.     170.  16.8
 3  169.  183.  168.  172.    183.     168.  15.2
 4  158.  179.  175.  161.    179.     158.  20.9
 5  182.  182.  158.  170.    182.     158.  24.5
 6  166.  153.  189.  165.    189.     153.  36.0
 7  169.  172.  190.  175.    190.     169.  20.3
 8  172.  164.  178.  197.    197.     164.  32.1
 9  190.  184.  177.  171.    190.     171.  18.7
10  161.  192.  165.  193.    193.     161.  32.4
# ℹ 3,990 more rows
…
What is the probability that a random person who is 180 cm tall is female?

Wisdom suggests we start by looking at the data. Because models use numbers, we need to create a new variable, female, which is 1 for Females and 0 for Males.

ch3_b <- nhanes |> 
  select(age, gender, height) |>
  mutate(female = ifelse(gender == "Female", 1, 0)) |> 
  filter(age >= 18) |> 
  select(female, height) |> 
  drop_na()

ch3_b

# A tibble: 7,424 × 2
   female height
    <dbl>  <dbl>
 1      0   165.
 2      0   165.
 3      0   165.
 4      1   168.
 5      1   167.
 6      1   167.
 7      1   167.
 8      0   170.
 9      0   182.
10      0   169.
# ℹ 7,414 more rows
…
Note that both the x and y axes are probabilities. Whenever we create a posterior probability distribution then, by definition, the y-axis is a probability. The x-axis is the unknown number we do not know. That unknown number can be anything — the weight of the average male, the height of 3rd tallest out of 100 men, the probability that a 180 cm tall person is female. A probability is just another number. The interpretation is the same as always.

Another major difference with logistic models is that posterior_epred() and posterior_predict() return different types of objects. posterior_epred() returns probabilities, as above. posterior_predict(), on the other hand, returns predictions, as its name suggests. In other words, it returns zeros and ones. Consider another question:

In a group of 100 people who are 180 centimeters tall, how many will be women?

newobs <- tibble(height = rep(180, 100))

pp <- posterior_predict(fit_2, newdata = newobs) |> 
  as_tibble() 

pp[, 1:4]

# A tibble: 4,000 × 4
     `1`   `2`   `3`   `4`
   <int> <int> <int> <int>
 1     0     0     0     0
 2     0     0     0     0
 3     0     0     0     0
 4     0     0     0     0
 5     0     0     0     0
 6     0     0     0     0
 7     0     0     0     0
 8     0     0     0     0
 9     0     0     0     0
10     1     0     0     0
# ℹ 3,990 more rows

We show just the first 4 columns for convenience. Each column is 4,000 draws from the posterior predictive distribution for the gender of a person who is 180 cm tall. (Since all 100 people have the same height, all the columns are draws from the same distribution.)

We can manipulate this object on a row-by-row basis.

pp <- posterior_predict(fit_2, newdata = newobs) |> 
  as_tibble() |> 
  rowwise() |> 
  mutate(total = sum(c_across()))

pp[, c("1", "2", "100", "total")]

# A tibble: 4,000 × 4
# Rowwise: 
     `1`   `2` `100` total
   <int> <int> <int> <int>
 1     0     0     0     5
 2     0     0     0     3
 3     0     0     0     7
 4     0     0     0     8
 5     0     0     0     6
 6     0     0     0     5
 7     0     0     0     5
 8     0     0     0     2
 9     0     0     0     6
10     0     0     0     4
# ℹ 3,990 more rows
…
