Preceptor's Primer for Bayesian Data Science: Using the Cardinal Virtues for Inference – 5 Three Parameters
…
?

Recall: a Preceptor Table is table with rows and columns such that, if there is no missing data, all our questions are easy to answer. To answer questions — like “What is the probability that, if a Democrat shows up at the train station, he will be over 50 years old?” — we need a row for every individual at the station.

Always explore your data. Recall the discussion from Chapter 1. Enos (2014) randomly placed Spanish-speaking confederates on nine train platforms around Boston, Massachusetts. The data that we want to analyze consists of the age and party of each individual on these train platforms based on our variables in our Preceptor Table. These reactions were measured through changes in answers to three survey questions. Load the necessary libraries and look at the data.

library(primer.data)
library(rstanarm)
library(tidyverse)

trains |>
  select(age, party)

# A tibble: 115 × 2
     age party     
   <int> <chr>     
 1    31 Democrat  
 2    34 Republican
 3    63 Democrat  
 4    45 Democrat  
 5    55 Democrat  
 6    37 Democrat  
 7    53 Republican
 8    36 Democrat  
 9    54 Democrat  
10    42 Republican
# ℹ 105 more rows
…
