Preceptor’s Primer for Bayesian Data Science: Using the Cardinal Virtues for Inference - 7 Five Parameters
…
7.4.2 Individual predictions

If, instead, we interpret the question as asking for a prediction for a small number of individuals, then we need to use posterior_predict().

Use posterior_predict() to create draws from the posterior probability distribution for our prediction for these cases. posterior_predict() takes two arguments: the model for which the simulations should be run, and a tibble indicating the covariate values for the individual(s) we want to predict. In this case, we are using the fit_4 model and the tibble is the one we just created above. In other words, the inputs for posterior_predict() and posterior_epred() are identical.

pp <- posterior_predict(object = fit_4, 
                        newdata = newobs) |>
  as_tibble() |> 
  rename("Male" = `1`,
         "Female" = `2`)

pp  

# A tibble: 4,000 × 2
    Male  Female
   <dbl>   <dbl>
 1  83.4  18.1  
 2  61.9  -9.23 
 3  63.6 -10.5  
 4  79.3  -9.61 
 5  43.3  50.4  
 6  57.7  31.9  
 7  58.3  31.2  
 8  76.0  11.8  
 9  52.5   0.807
10  68.2 -13.8  
# ℹ 3,990 more rows
…
