Preceptor’s Primer for Bayesian Data Science: Using the Cardinal Virtues for Inference - 7 Five Parameters
…
If, instead, we interpret the question as asking for a prediction for a small number of individuals, then we need to use posterior_predict().

With the help of the posterior predictive check we can run a “fake-data” simulation upon our fitted model that generates a distribution based on the variables at hand. With the help of this check we can view our similar our distribution is when compared with the “fake-data” simulation and the actual data. Use posterior_predict() to create draws from the posterior probability distribution for our prediction for these cases. posterior_predict() takes two arguments: the model for which the simulations should be run, and a tibble indicating the covariate values for the individual(s) we want to predict. In this case, we are using the fit_4 model and the tibble is the one we just created above. In other words, the inputs for posterior_predict() and posterior_epred() are identical.

Code
pp <- posterior_predict(object = fit_4, 
                        newdata = newobs) |>
  as_tibble() |> 
  rename("Male" = `1`,
         "Female" = `2`)

pp  

# A tibble: 4,000 × 2
    Male Female
   <dbl>  <dbl>
 1  55.3  11.0 
 2  87.6  15.8 
 3  72.8   3.26
 4  56.6  -9.16
 5  70.9   6.72
 6  65.4   8.45
 7  71.7  43.4 
 8  64.0  44.7 
 9  69.9  50.5 
10  65.7   2.29
# ℹ 3,990 more rows
…
