Preceptor’s Primer for Bayesian Data Science: Using the Cardinal Virtues for Inference - 4 Models
…
The lower and upper bounds of the 95% confidence interval are indicated by “l-95% CI” and “u-95% CI.” The number also match, subject to rounding, our calculations. (We can’t use the by-hand calculations with more complex models, otherwise we would have no need for brms!)

The “sigma” variable in the “Family Specific Parameters” section refers to out estimate of \(\sigma\), given the assumed truth of a gaussian error term. Since that assumption is clearly false, we won’t waste time interpreting the results here.

Once we have a fitted model, we can use that model, along with the R packages tidybayes and bayesplots, to answer various questions.

library(tidybayes)
library(bayesplot)

We can generate a posterior distribution for \(\rho\) with:

fit_1 |> 
  add_epred_draws(newdata = tibble(.rows = 1))

# A tibble: 4,000 × 5
# Groups:   .row [1]
    .row .chain .iteration .draw .epred
   <int>  <int>      <int> <int>  <dbl>
 1     1     NA         NA     1  0.424
 2     1     NA         NA     2  0.418
 3     1     NA         NA     3  0.432
 4     1     NA         NA     4  0.412
 5     1     NA         NA     5  0.429
 6     1     NA         NA     6  0.411
 7     1     NA         NA     7  0.405
 8     1     NA         NA     8  0.408
 9     1     NA         NA     9  0.424
10     1     NA         NA    10  0.429
# ℹ 3,990 more rows
…
Even more useful than posteriors of the parameters in the model are predictions we can make with the model. The key function for exploring those predictions is add_predicted_draws(). This function behaves similarly to add_epred_draws(). In both cases, we need to provide the value for the newdata argument, generally a tibble with a column for all the variables used in the fitted model. Again, because this is an intercept-only model, there is no need for columns in the newdata tibble. No variables are used in fit_1.

fit_1 |> 
  add_predicted_draws(newdata = tibble(.rows = 1))

# A tibble: 4,000 × 5
# Groups:   .row [1]
    .row .chain .iteration .draw .prediction
   <int>  <int>      <int> <int>       <dbl>
 1     1     NA         NA     1       0.619
 2     1     NA         NA     2       0.112
 3     1     NA         NA     3       0.449
 4     1     NA         NA     4      -0.436
 5     1     NA         NA     5       0.239
 6     1     NA         NA     6       0.298
 7     1     NA         NA     7       0.829
 8     1     NA         NA     8       0.642
 9     1     NA         NA     9       0.350
10     1     NA         NA    10       1.29 
# ℹ 3,990 more rows
…
If both fit_1 and fit_2 produce the same posterior distribution for \(\rho\), then who cares which one we use? The answer is that fit_2 produces reasonable posterior predictions:

fit_2 |> 
  add_predicted_draws(newdata = tibble(.rows = 1))

# A tibble: 4,000 × 5
# Groups:   .row [1]
    .row .chain .iteration .draw .prediction
   <int>  <int>      <int> <int>       <int>
 1     1     NA         NA     1           0
 2     1     NA         NA     2           0
 3     1     NA         NA     3           1
 4     1     NA         NA     4           1
 5     1     NA         NA     5           1
 6     1     NA         NA     6           1
 7     1     NA         NA     7           0
 8     1     NA         NA     8           1
 9     1     NA         NA     9           0
10     1     NA         NA    10           1
# ℹ 3,990 more rows
…
Recall the question with which we began:

What are the odds, if we just look at two voters, both will have voted for Biden?

4.4.2 The Answer

Because the model is a simple Bernoulli, we can actually calculate this by hand. The probability of two Biden supporters is simply the probability that the first person supports Biden, which is 0.42, times the probability that the second person supports Biden, which is also 0.42. \(0.42^2 \approx 0.176\).

Let’s use fit_2 to answer this question with the help of add_predicted_draws(). Instead of having just one row in newdata, we now have two rows, one for each person for whom we need a posterior.

fit_2 |> 
  add_predicted_draws(newdata = tibble(.rows = 2))

# A tibble: 8,000 × 5
# Groups:   .row [2]
    .row .chain .iteration .draw .prediction
   <int>  <int>      <int> <int>       <int>
 1     1     NA         NA     1           1
 2     1     NA         NA     2           1
 3     1     NA         NA     3           0
 4     1     NA         NA     4           1
 5     1     NA         NA     5           1
 6     1     NA         NA     6           0
 7     1     NA         NA     7           1
 8     1     NA         NA     8           1
 9     1     NA         NA     9           0
10     1     NA         NA    10           1
# ℹ 7,990 more rows

Note that there are 8,000 rows in the resulting tibble, not 4,000 as we saw before. There will be 4,000 rows for each row in newdata because the default for brms functions is to provide 4,000 draws from each posterior requested and then to “stack” them on top of each other. Here, we are asking for two posteriors, one for each person, so there are 8,000 rows.

Let’s make two changes to this code. First, we will add a seed argument to add_predicted_draws(). One problem with any sample of random draws from a posterior distribution is that it is, by definition, random. We get different values each time we run it. This is sometimes annoying, as when you are writing a textbook with discussions of the exact output. Give the seed argument any value and any function in brms will produce the same answers each time. Second, let’s just keep the variables we actually need.

fit_2 |> 
  add_predicted_draws(newdata = tibble(.rows = 2), seed = 10) |> 
  select(.row, .draw, .prediction)

# A tibble: 8,000 × 3
# Groups:   .row [2]
    .row .draw .prediction
   <int> <int>       <int>
 1     1     1           0
 2     1     2           0
 3     1     3           0
 4     1     4           1
 5     1     5           0
 6     1     6           0
 7     1     7           0
 8     1     8           0
 9     1     9           1
10     1    10           0
# ℹ 7,990 more rows

It is useful to reshape the resulting tibble so that, for each draw of the 4,000, the results from both people are on the same row.

fit_2 |> 
  add_predicted_draws(newdata = tibble(.rows = 2)) |> 
  select(.row, .draw, .prediction) |> 
  pivot_wider(values_from = .prediction, names_from = .row)

# A tibble: 4,000 × 3
   .draw   `1`   `2`
   <int> <int> <int>
 1     1     0     0
 2     2     0     1
 3     3     0     1
 4     4     1     0
 5     5     1     0
 6     6     1     1
 7     7     1     0
 8     8     1     0
 9     9     0     0
10    10     0     0
# ℹ 3,990 more rows

We are back to a tibble of 4,000 rows, meaning that each row is a draw from an underlying posterior. But, in this case, we have the draws from two posteriors, one for each person, placed side-by-side. In the first “draw,” person 1 and person 2 both do not support Biden. In the third draw, person 1 does not support Biden but person 2 does. Only in draw 4 do we see the case we are looking for, with both people supporting Biden. Let’s identify all the rows where this is TRUE.

fit_2 |> 
  add_predicted_draws(newdata = tibble(.rows = 2), seed = 10) |> 
  select(.row, .draw, .prediction) |> 
  pivot_wider(values_from = .prediction, names_from = .row) |> 
  mutate(both = if_else(`1` & `2`, TRUE, FALSE)) 

# A tibble: 4,000 × 4
   .draw   `1`   `2` both 
   <int> <int> <int> <lgl>
 1     1     0     0 FALSE
 2     2     0     0 FALSE
 3     3     0     1 FALSE
 4     4     1     1 TRUE 
 5     5     0     0 FALSE
 6     6     0     0 FALSE
 7     7     0     0 FALSE
 8     8     0     1 FALSE
 9     9     1     0 FALSE
10    10     0     1 FALSE
# ℹ 3,990 more rows
…
