Preceptor’s Primer for Bayesian Data Science: Using the Cardinal Virtues for Inference - 3 One Parameter
…
Hand-drawn histogram of first 10 out of 33 proportions.

Observe the following details in the histogram:

At the low end, one group removed 50 beads from the urn with proportion red between 0.20 and 0.25.

At the high end, another group removed 50 beads from the urn with proportion between 0.45 and 0.5 red.

However, the most frequently occurring proportions were between 0.30 and 0.35 red, right in the middle of the distribution.

The distribution is somewhat bell-shaped.

tactile_sample_urn saves the results from our 33 groups of friends.

# A tibble: 33 × 4
   group         red_beads prop_red group_ID
   <chr>             <dbl>    <dbl>    <int>
 1 Mak, Sophie          17     0.34        1
 2 Siobhan, Jane        11     0.22        2
 3 Ace, Chris           18     0.36        3
 4 Maeve, Josh          18     0.36        4
 5 Ilyas, Yohan         21     0.42        5
 6 Mia, James           15     0.3         6
 7 Mark, Ramses         21     0.42        7
 8 Ishan, Cass          15     0.3         8
 9 Aayush, Karen        15     0.3         9
10 Nam, Joshua          19     0.38       10
# ℹ 23 more rows
…
set.seed(10)

urn <- tibble(color = c(rep("red", 400), 
                        rep("white", 600))) |>
  
  # sample_frac() keeps all the rows in the tibble but rearranges their order.
  # We don't need to do this. A virtual urn does not care about the order of the
  # beads. But we find it aesthetically pleasing to mix them up.
  
  sample_frac() |> 
  mutate(bead_ID = 1:1000) 

urn  

# A tibble: 1,000 × 2
   color bead_ID
   <chr>   <int>
 1 white       1
 2 white       2
 3 red         3
 4 red         4
 5 white       5
 6 white       6
 7 white       7
 8 white       8
 9 white       9
10 white      10
# ℹ 990 more rows
…
In our tactile sampling exercise in Section 3.1, we had 33 groups of students use the shovel, yielding 33 samples of size 50 beads. We then used these 33 samples to compute 33 proportions.

Let’s use our virtual sampling to replicate the tactile sampling activity in a virtual format. We’ll save these results in a data frame called virtual_samples.

Show the code
set.seed(9)

 virtual_samples <- tibble(trial_ID = 1:33) |>
    mutate(shovel = map(trial_ID, ~ slice_sample(urn, n = 50))) |> 
    mutate(numb_red = map_int(shovel, ~ sum(.$color == "red"))) |>
    mutate(prop_red = numb_red / 50) 

virtual_samples

# A tibble: 33 × 4
   trial_ID shovel            numb_red prop_red
      <int> <list>               <int>    <dbl>
 1        1 <tibble [50 × 2]>       21     0.42
 2        2 <tibble [50 × 2]>       19     0.38
 3        3 <tibble [50 × 2]>       17     0.34
 4        4 <tibble [50 × 2]>       15     0.3 
 5        5 <tibble [50 × 2]>       17     0.34
 6        6 <tibble [50 × 2]>       21     0.42
 7        7 <tibble [50 × 2]>        9     0.18
 8        8 <tibble [50 × 2]>       21     0.42
 9        9 <tibble [50 × 2]>       16     0.32
10       10 <tibble [50 × 2]>       20     0.4 
# ℹ 23 more rows
…
Variance appears everywhere in data science.

Let’s take a step back from all the variance. The reality is that our code needs to be better optimized, as it is bad practice to make a separate tibble for each sample size. To make comparisons easier, let’s attempt to put all 3 shovel sizes in the same tibble using mapping.

Show the code
tibble(trial_ID = 1:1000) |>
  mutate(shovel_ID = map(trial_ID, ~c(25, 50, 100))) |>
  unnest(shovel_ID) |>
  mutate(samples = map(shovel_ID, ~slice_sample(urn, n = .))) |>
  mutate(num_red = map_int(samples, ~sum(.$color == "red"))) |>
  mutate(prop_red = num_red/shovel_ID)

# A tibble: 3,000 × 5
   trial_ID shovel_ID samples            num_red prop_red
      <int>     <dbl> <list>               <int>    <dbl>
 1        1        25 <tibble [25 × 2]>        7     0.28
 2        1        50 <tibble [50 × 2]>       26     0.52
 3        1       100 <tibble [100 × 2]>      37     0.37
 4        2        25 <tibble [25 × 2]>        8     0.32
 5        2        50 <tibble [50 × 2]>       15     0.3 
 6        2       100 <tibble [100 × 2]>      46     0.46
 7        3        25 <tibble [25 × 2]>        6     0.24
 8        3        50 <tibble [50 × 2]>       21     0.42
 9        3       100 <tibble [100 × 2]>      40     0.4 
10        4        25 <tibble [25 × 2]>        9     0.36
# ℹ 2,990 more rows
…
Let’s create our posterior for \(\rho\) by using posterior_epred():

ppd_for_p <- posterior_epred(fit_1, 
                newdata = tibble(.rows = 1)) |> 
  as_tibble() |>
  rename(p = `1`)
  
# posterior_epred() will unhelpfully name the column of our tibble to "1". We
# have two options: either refer to the column name as `1`, or rename the column
# to make it less confusing. We will rename the column to "p" in this chapter, but you
# will oftentimes see `1` in later chapters.

ppd_for_p

# A tibble: 4,000 × 1
       p
   <dbl>
 1 0.176
 2 0.165
 3 0.173
 4 0.246
 5 0.258
 6 0.258
 7 0.243
 8 0.242
 9 0.307
10 0.300
# ℹ 3,990 more rows
…
Why are there 4,000 rows in the stan_glm() tibble?

By default, stan_glm() will sample from the posterior in 2 sets of 2,000 iterations. If needed we can change the default number of iterations using the iter argument, but there are few reasons to do so. Some of us may still want to know why we sample from the posterior in the first place. Why not use the entire posterior? The answer is that the posterior is a theoretical beast, which makes it difficult to work with.

For example, what if we wanted to know the probability that \(\rho\) is between .3 and .4? To answer this using the pure posterior, we would need to calculate the area under the distribution from when \(.3 < \rho < .4\). This is more difficult then it seems, as the posterior is a distribution, so it has no individual observations to work with as it’s continuous!

Instead, we can work with draws from the posterior. With enough draws we create a close approximation of the posterior which models the counts of our observations. This is an approximation; it is not exactly the posterior, but close enough for our purposes. We can easily convert our posterior distribution into a posterior probability distribution, by making the area under the graph sum to 1. The posterior probability distribution is often used as a visual aid, as percentages are more easy to conceptualize than raw numbers. One way to convert a posterior distribution into a probability distribution is to group by each value of \(\rho\) and turn the counts into probabilities:

ppd_for_p |>
  round(digits = 2) |>
  summarize(prob = n()/nrow(ppd_for_p),
            .by = p) |>
  arrange(desc(prob))

# A tibble: 46 × 2
       p   prob
   <dbl>  <dbl>
 1  0.35 0.0615
 2  0.32 0.0605
 3  0.36 0.0588
 4  0.34 0.0585
 5  0.33 0.058 
 6  0.31 0.054 
 7  0.37 0.0535
 8  0.39 0.047 
 9  0.3  0.0462
10  0.38 0.0442
# ℹ 36 more rows
…
What is the probability, using the same urn, that we will draw more than 8 red beads if we use a shovel of size 20?

3.4.4.1 Using the posterior

Whenever someone asks you a question, you need to decide what posterior probability distribution would make it easy for you to answer that question. In this case, if we know the posterior probability distribution for the number of red beads in a shovel of size 20, then a question about the likelihood of drawing more than 8 (or any other value) is easy to answer.

The posterior probability distribution for a probability is a tricky thing. It is much easier just to estimate the posterior probability distribution for the outcome — number of red beads out of 20 — and then work with that distribution in order to answer probability-type questions.

To predict these future unknown samples, we use posterior_predict(). We pass the posterior created using stan_glm() as the first argument, and because we want to estimate the number of red draws with a shovel size of 20, we use pass a tibble with 20 rows into newdata.

posterior_predict(fit_1, 
                  newdata = tibble(.rows = 20)) |> 
  as_tibble()

# A tibble: 4,000 × 20
     `1`   `2`   `3`   `4`   `5`   `6`   `7`   `8`   `9`  `10`  `11`  `12`  `13`
   <int> <int> <int> <int> <int> <int> <int> <int> <int> <int> <int> <int> <int>
 1     0     0     1     0     0     1     0     0     0     1     0     1     0
 2     0     0     0     0     0     1     0     0     0     0     0     0     0
 3     0     0     1     0     0     0     1     0     0     0     0     0     0
 4     1     1     1     0     1     0     0     0     0     0     0     0     0
 5     1     0     0     0     0     0     1     1     1     0     1     0     1
 6     0     0     1     0     0     1     1     0     0     0     1     0     1
 7     1     0     0     0     1     0     0     0     0     1     0     0     0
 8     0     0     0     0     1     0     1     0     0     0     0     1     0
 9     1     0     1     0     1     0     0     0     0     1     0     0     1
10     0     0     0     0     0     1     0     0     0     0     0     0     0
# ℹ 3,990 more rows
# ℹ 7 more variables: `14` <int>, `15` <int>, `16` <int>, `17` <int>,
#   `18` <int>, `19` <int>, `20` <int>
…
To visualize this probability graphically, we will reuse our posterior, and add a new column called above_eight that is TRUE if total > 8.

Show the code
ppd_reds_in_20 <- posterior_predict(fit_1, 
                    newdata = tibble(.rows = 20)) |> 
  as_tibble() |> 
  rowwise() |> 
  mutate(total = sum(c_across(`1`:`20`))) |>
  select(total) |>
  mutate(above_eight = ifelse(total > 8, TRUE, FALSE))

ppd_reds_in_20

# A tibble: 4,000 × 2
# Rowwise: 
   total above_eight
   <int> <lgl>      
 1     4 FALSE      
 2     4 FALSE      
 3     4 FALSE      
 4     5 FALSE      
 5     4 FALSE      
 6     7 FALSE      
 7     6 FALSE      
 8     5 FALSE      
 9     7 FALSE      
10     6 FALSE      
# ℹ 3,990 more rows
…
