Preceptor’s Primer for Bayesian Data Science: Using the Cardinal Virtues for Inference - 5 Three Parameters
…
?

?

Recall: a Preceptor Table is smallest possible table with rows and columns such that, if there is no missing data, all our questions are easy to answer. To answer questions — like “What is the probability that, if a Democrat shows up at the train station, he will be over 50 years old?” — we need a row for every individual at the station.

5.1.1.2 Always Explore Your Data

Recall the discussion from Chapter 1. Enos (2014) randomly placed Spanish-speaking confederates on nine train platforms around Boston, Massachusetts. The data that we want to analyze consists of the age and party of each individual on these train platforms based on our variables in our Preceptor Table. These reactions were measured through changes in answers to three survey questions.

trains |>
  select(age, party)

# A tibble: 115 × 2
     age party     
   <int> <chr>     
 1    31 Democrat  
 2    34 Republican
 3    63 Democrat  
 4    45 Democrat  
 5    55 Democrat  
 6    37 Democrat  
 7    53 Republican
 8    36 Democrat  
 9    54 Democrat  
10    42 Republican
# ℹ 105 more rows
…
[1] 0.27575

Recall the second question:

In a group of three Democrats and three Republicans, what will the age difference be between the oldest Democrat and the youngest Republican?

As before we start by creating a tibble with the assumed input. Note that the name of the column (“party”) and the observations (“Democrat”, “Republican”) must always be exactly as they are in the original data set. This tibble as well as our model can then be used as arguments for posterior_predict():

newobs <- tibble(party = c("Democrat", "Democrat", "Democrat", 
                        "Republican", "Republican","Republican"))

posterior_predict(fit_1, newdata = newobs) |>
    as_tibble() 

# A tibble: 4,000 × 6
     `1`   `2`   `3`   `4`   `5`   `6`
   <dbl> <dbl> <dbl> <dbl> <dbl> <dbl>
 1  45.4  30.8  56.9  32.6  20.3  40.7
 2  28.9  50.8  48.9  51.2  51.0  60.0
 3  43.1  30.5  45.9  18.1  41.4  46.2
 4  40.5  31.7  49.1  42.7  60.1  48.7
 5  46.2  36.9  21.4  44.7  31.8  44.9
 6  35.2  49.6  57.8  36.7  38.4  58.0
 7  34.4  36.0  54.5  42.9  44.9  56.0
 8  41.9  54.7  48.4  35.2  58.3  38.6
 9  63.1  72.3  47.3  57.9  51.3  54.2
10  43.8  48.9  49.5  46.7  56.6  34.7
# ℹ 3,990 more rows
…
    set_names(c("dem_1", "dem_2", "dem_3", 
                "rep_1", "rep_2", "rep_3")) |> 
    rowwise() |> 
  
  # Creating three new columns. The first two are the highest age among
  # Democrats and the lowest age among Republicans, respectively. The third one
  # is the difference between the first two.
  
  mutate(dems_oldest = max(c_across(dem_1:dem_3)),
         reps_youngest = min(c_across(rep_1:rep_3)),
         age_diff = dems_oldest - reps_youngest)

pp

# A tibble: 4,000 × 9
# Rowwise: 
   dem_1 dem_2 dem_3 rep_1 rep_2 rep_3 dems_oldest reps_youngest age_diff
   <dbl> <dbl> <dbl> <dbl> <dbl> <dbl>       <dbl>         <dbl>    <dbl>
 1  60.2  64.9  39.7  38.1  45.7  51.4        64.9          38.1    26.8 
 2  41.7  37.8  43.4  56.4  33.7  78.3        43.4          33.7     9.73
 3  28.6  70.9  66.7  34.9  12.0  29.8        70.9          12.0    58.9 
 4  33.1  35.7  57.6  37.0  34.5  35.9        57.6          34.5    23.1 
 5  39.8  26.7  54.0  25.0  40.4  22.7        54.0          22.7    31.3 
 6  31.8  31.4  63.0  58.2  29.4  45.6        63.0          29.4    33.6 
 7  25.3  43.5  39.6  31.5  54.4  38.4        43.5          31.5    12.0 
 8  53.0  60.2  52.3  52.8  61.0  41.2        60.2          41.2    19.0 
 9  42.9  50.3  35.2  46.2  54.5  30.8        50.3          30.8    19.5 
10  36.2  38.7  63.7  39.7  24.7  33.9        63.7          24.7    38.9 
# ℹ 3,990 more rows
…
?

?

Recall: a Preceptor Table is table with rows and columns such that, if there is no missing data, all our questions are easy to answer. To answer questions — like “What is the average treatment effect, of exposing people to Spanish-speakers, on their attitudes toward immigration? and What is the largest causal effect which still has a 1 in 10 chance of occurring?” — we need a row for every individual at the station.

5.2.1.2 Exploratory Data Analysis

Recall the discussion from Chapter 1. Enos (2014) randomly placed Spanish-speaking confederates on nine train platforms around Boston, Massachusetts. The data that we want to analyze consists of the age and party of each individual on these train platforms based on our variables in our Preceptor Table. These reactions were measured through changes in answers to three survey questions.

trains |>
  select(att_end, treatment)

# A tibble: 115 × 2
   att_end treatment
     <dbl> <fct>    
 1      11 Treated  
 2      10 Treated  
 3       5 Treated  
 4      11 Treated  
 5       5 Control  
 6      13 Treated  
 7      13 Control  
 8      11 Treated  
 9      12 Control  
10      10 Treated  
# ℹ 105 more rows
…
Could the true value of the average treatment effect be as much as 2 or as little as 1? Of course! The most likely value is around 1.5, but the variation in the data and the smallness of our sample cause the estimate to be imprecise. However, it is quite unlikely that the true average treatment effect is below zero.

We can use posterior_epred() to answer this question. Create a tibble and use it as we have done before:

newobs <- tibble(treatment = c("Treated", "Control"))

pe <- posterior_epred(fit_2, newobs) |> 
    as_tibble() |> 
    mutate(ate = `1` - `2`)

pe

# A tibble: 4,000 × 3
     `1`   `2`   ate
   <dbl> <dbl> <dbl>
 1 10.0   8.56 1.47 
 2  9.94  8.33 1.61 
 3 10.0   8.48 1.56 
 4 10.6   8.28 2.36 
 5 10.6   8.29 2.32 
 6  9.26  8.81 0.449
 7 10.4   8.42 1.96 
 8 10.5   8.28 2.26 
 9 10.8   8.51 2.25 
10 10.3   8.37 1.88 
# ℹ 3,990 more rows
…
What is the largest effect size which still has a 1 in 10 chance of occurring?

Create a tibble which we can pass to posterior_predict(). The variables in the tibble which will be passed in as newdata. Fortunately, the tibble we created above is just what we need for this question also.

Consider the result of posterior_predict() for two people, one treated and one control. Take the difference.

pp <- posterior_predict(fit_2, 
                        newdata = newobs) |>
    as_tibble() |>
    mutate(te = `1` - `2`)
  
pp

# A tibble: 4,000 × 3
     `1`   `2`     te
   <dbl> <dbl>  <dbl>
 1  8.20 11.0  -2.76 
 2 10.9   9.75  1.18 
 3  8.24  5.74  2.50 
 4 10.4   7.28  3.17 
 5  6.38  7.90 -1.52 
 6  7.90 10.8  -2.88 
 7  8.80  8.24  0.565
 8 11.8   7.05  4.76 
 9  5.34  9.19 -3.85 
10 11.4   7.84  3.55 
# ℹ 3,990 more rows
…
?

?

Recall: a Preceptor Table is table with rows and columns such that, if there is no missing data, all our questions are easy to answer. To answer questions — like “What would you expect the income to be for a 40-year old?” — we need a row for every individual at the station.

5.3.1.2 Data Analysis

Recall the discussion from Chapter 1. Enos (2014) randomly placed Spanish-speaking confederates on nine train platforms around Boston, Massachusetts. The data that we want to analyze consists of the age and party of each individual on these train platforms based on our variables in our Preceptor Table. These reactions were measured through changes in answers to three survey questions.

trains |>
  select(age, income)

# A tibble: 115 × 2
     age income
   <int>  <dbl>
 1    31 135000
 2    34 105000
 3    63 135000
 4    45 300000
 5    55 135000
 6    37  87500
 7    53  87500
 8    36 135000
 9    54 105000
10    42 135000
# ℹ 105 more rows
…
Recall our question:

What would you expect the income to be for a random 40 year old?

Given that we are looking for an expected value, we use posterior_epred().

newobs <- tibble(age = 40)

pe <- posterior_epred(fit_3, newdata = newobs) |> 
  as_tibble() 

pe

# A tibble: 4,000 × 1
       `1`
     <dbl>
 1 142106.
 2 141530.
 3 141363.
 4 139289.
 5 139647.
 6 142876.
 7 139427.
 8 143336.
 9 145881.
10 143052.
# ℹ 3,990 more rows
…
?

?

Recall: a Preceptor Table is table with rows and columns such that, if there is no missing data, all our questions are easy to answer. To answer questions — like “Among all people who have an income $100,000, what proportion are liberal? and Assume we have a group of eight people, two of whom make $100,000, two $200,000, two $300,000 and two $400,000. How many will be liberal?” — we need a row for every individual at the station.

5.4.1.2 Data Analysis with Exploratory Approach

Recall the discussion from Chapter 1. Enos (2014) randomly placed Spanish-speaking confederates on nine train platforms around Boston, Massachusetts. The data that we want to analyze consists of the age and party of each individual on these train platforms based on our variables in our Preceptor Table. These reactions were measured through changes in answers to three survey questions.

trains |>
  select(liberal, income)

# A tibble: 115 × 2
   liberal income
   <lgl>    <dbl>
 1 FALSE   135000
 2 FALSE   105000
 3 TRUE    135000
 4 FALSE   300000
 5 TRUE    135000
 6 FALSE    87500
 7 FALSE    87500
 8 FALSE   135000
 9 FALSE   105000
10 FALSE   135000
# ℹ 105 more rows
…
Warning: There was 1 warning in `mutate()`.
ℹ In argument: `total = sum(c_across())`.
ℹ In row 1.
Caused by warning:
! Using `c_across()` without supplying `cols` was deprecated in dplyr 1.1.0.
ℹ Please supply `cols` instead.

pp

# A tibble: 4,000 × 9
# Rowwise: 
     `1`   `2`   `3`   `4`   `5`   `6`   `7`   `8` total
   <int> <int> <int> <int> <int> <int> <int> <int> <int>
 1     1     1     1     1     0     0     0     0     4
 2     0     1     0     0     0     0     1     0     2
 3     1     0     0     0     0     0     0     0     1
 4     1     0     1     0     1     0     0     0     3
 5     1     0     0     0     0     0     0     0     1
 6     0     1     0     0     0     1     0     0     2
 7     1     1     1     0     1     0     0     0     4
 8     0     1     0     0     0     0     0     0     1
 9     0     1     0     1     1     0     0     0     3
10     0     1     1     0     0     0     0     0     2
# ℹ 3,990 more rows
…
