Preceptor’s Primer for Bayesian Data Science: Using the Cardinal Virtues for Inference - 6 Three Parameters: Causal
…
No

Starred values were not observed in the experiment. That is, Person 10 received the treatment at, afterwards, had a value of 5 for her attitude toward immigration. We don’t know, we can’t know, what her attitude would have been if she had received control instead. But, with the tools of inference, we can estimate what that value would have been if she has, in fact, received control.

A Preceptor Table is the smallest possible table with rows and columns such that, if there is no missing data, all our questions are easy to answer. To answer questions — like “What is the average treatment effect, of exposing people to Spanish-speakers, on their attitudes toward immigration?” or “What is the largest causal effect which still has a 1 in 10 chance of occurring?” — we need a row for every individual.

###Exploratory Data Analysis

Recall the discussion from Chapter 1. Enos (2014) randomly placed Spanish-speaking confederates on nine train platforms around Boston, Massachusetts. The data that we want to analyze consists of the attitude toward immigration after the experiment is complete (att_end) and the exposure to Spanish-speakers (treatment) of each individual on these train platforms.

Show the code
trains |>
  select(att_end, treatment)

# A tibble: 115 × 2
   att_end treatment
     <dbl> <fct>    
 1      11 Treated  
 2      10 Treated  
 3       5 Treated  
 4      11 Treated  
 5       5 Control  
 6      13 Treated  
 7      13 Control  
 8      11 Treated  
 9      12 Control  
10      10 Treated  
# ℹ 105 more rows
…
Courage gave us the fitted model. With Temperance we can create posteriors of the quantities of interest. We should be modest in the claims we make.

6.4.1 Questions and Answers

Recall the question:

What is the average treatment effect, of exposing people to Spanish-speakers, on their attitudes toward immigration?

Use add_epred_draws() as usual. Creating the value for the newdata argument is tricky since we need to construct the treatment variable by hand. Even though treatment is a factor variable within trains, we can get away with using a simple character variable since either version would be transformed into a 0/1 variable by add_epred_draws().

fit_1 |> 
  add_epred_draws(
    newdata = tibble(treatment = c("Treated", "Control")))

# A tibble: 8,000 × 6
# Groups:   treatment, .row [2]
   treatment  .row .chain .iteration .draw .epred
   <chr>     <int>  <int>      <int> <int>  <dbl>
 1 Treated       1     NA         NA     1   9.96
 2 Treated       1     NA         NA     2   9.52
 3 Treated       1     NA         NA     3   9.89
 4 Treated       1     NA         NA     4   9.89
 5 Treated       1     NA         NA     5   9.89
 6 Treated       1     NA         NA     6   9.44
 7 Treated       1     NA         NA     7   9.90
 8 Treated       1     NA         NA     8   9.98
 9 Treated       1     NA         NA     9  10.6 
10 Treated       1     NA         NA    10  10.2 
# ℹ 7,990 more rows
…
Just eyeballing the graph, we can see that the posterior att_end for Control is centered around 8.5. For Treated, the center is around 10. Since the causal effect is the difference between two outcomes, we can simply subtract and estimate that the causal effect is about \(10 - 8.5 = 1.5\).

Even better, we can do the calculation on the individual rows of the posterior draws. But, first, we need to “widen” the tibble.

fit_1 |> 
  add_epred_draws(
    newdata = tibble(treatment = c("Treated", "Control"))) |> 
  pivot_wider(id_cols = .draw, names_from = treatment, values_from = .epred)

# A tibble: 4,000 × 3
   .draw Treated Control
   <int>   <dbl>   <dbl>
 1     1    9.96    8.37
 2     2    9.52    9.09
 3     3    9.89    8.23
 4     4    9.89    8.23
 5     5    9.89    8.23
 6     6    9.44    8.62
 7     7    9.90    8.33
 8     8    9.98    8.80
 9     9   10.6     8.69
10    10   10.2     8.73
# ℹ 3,990 more rows
…
