Preceptor’s Primer for Bayesian Data Science: Using the Cardinal Virtues for Inference - 5 Two Parameters
…
nhanes includes 15 variables, including physical attributes like weight and height. Let’s restrict our attention to three variables: age, gender and height.

nhanes |> 
  select(age, gender, height)

# A tibble: 10,000 × 3
     age gender height
   <int> <chr>   <dbl>
 1    34 Male     165.
 2    34 Male     165.
 3    34 Male     165.
 4     4 Male     105.
 5    49 Female   168.
 6     9 Male     133.
 7     8 Male     131.
 8    45 Female   167.
 9    45 Female   167.
10    45 Female   167.
# ℹ 9,990 more rows
…
What is the probability that the next adult male we meet will be taller than 180 centimeters?

There are two fundamentally different kinds of unknowns which we care about: expected values and predicted values. With the former, we are not interested in any specific individual. The individual value is irrelevant. With predicted values, we care, not about the average, but about this specific person. With the former, we use add_epred_draws(). With the latter, the relevant function is add_predicted_draws(). Both functions return draws from a posterior probability distribution, but the unknown number which underlies the posterior are very different.

Recall the mathematics:

\[ y_i =  \mu + \epsilon_i \]

With expected values or averages, we can ignore the \(\epsilon_i\) term in this formula. The expected value of \(\epsilon_i\) is zero since, by assumption, \(\epsilon_i \sim N(0, \sigma^2)\). However, we can’t ignore \(\epsilon_i\) when predicting the height for a single individual.

fit_1 |> 
  add_predicted_draws(newdata = tibble(.rows = 1))

# A tibble: 4,000 × 5
# Groups:   .row [1]
    .row .chain .iteration .draw .prediction
   <int>  <int>      <int> <int>       <dbl>
 1     1     NA         NA     1        177.
 2     1     NA         NA     2        188.
 3     1     NA         NA     3        177.
 4     1     NA         NA     4        178.
 5     1     NA         NA     5        177.
 6     1     NA         NA     6        193.
 7     1     NA         NA     7        168.
 8     1     NA         NA     8        193.
 9     1     NA         NA     9        172.
10     1     NA         NA    10        173.
# ℹ 3,990 more rows
…
Again, the key conceptual difficulty is the population. The problem we actually have involves walking around London, or wherever, today. The data we have involve America in 2010. Those are not the same things! But they are not totally different. Knowing whether the data we have is “close enough” to the problem we want to solve is at the heart of Wisdom. Yet that was the decision we made at the start of the process, the decision to create a model in the first place. Now that we have created a model, we look to the virtue of Temperance for guidance in using that model. The data we have is never a perfect match for the world we face. We need to temper our confidence and act with humility. Our forecasts will never be as good as a naive use of the model might suggest. Reality will surprise us. We need to take the model’s claims with a family-sized portion of salt.

5.4.2 Question 2

What is the probability that, among the next 4 men we meet, the tallest is at least 10 cm taller than the shortest?

Bayesian models are beautiful because, via the magic of simulation, we can answer (almost!) any question. Because the question is about four random individuals, we need add_predicted_draws() to give us four sets of draws from four identical posterior probability distributions. All we need to do is to change 1 to 4 in our previous code and then widen the data. If you need to predict X individuals, then you need a tibble with X rows, regardless of whether or not those rows are otherwise identical.

fit_1 |> 
  add_predicted_draws(newdata = tibble(.rows = 4)) |>
  select(.row, .draw, .prediction) |> 
  pivot_wider(values_from = .prediction, names_from = .row)

# A tibble: 4,000 × 5
   .draw   `1`   `2`   `3`   `4`
   <int> <dbl> <dbl> <dbl> <dbl>
 1     1  184.  186.  176.  170.
 2     2  179.  182.  176.  180.
 3     3  177.  176.  171.  181.
 4     4  180.  162.  178.  178.
 5     5  172.  164.  178.  181.
 6     6  169.  175.  182.  173.
 7     7  181.  163.  181.  176.
 8     8  173.  174.  183.  195.
 9     9  180.  174.  170.  169.
10    10  179.  177.  189.  175.
# ℹ 3,990 more rows

Again, we have the subtle issue. In the same way that light is both a wave and a particle, these columns are both posteriors and draws from those posteriors, when considered row by row. In each row, we are running an experiment in which we meet 4 men. We measure their heights, we determine if the tallest is more than 10 centimeters taller than the shortest. We then do the same thing is row 2, row 3 and so on. The functions row_wise() and c_across() make this (mostly) simple.

draws <- fit_1 |> 
  add_predicted_draws(newdata = tibble(.rows = 4)) |>
  select(.row, .draw, .prediction) |> 
  pivot_wider(values_from = .prediction, names_from = .row) |> 
  rowwise() %>%
  mutate(diff = max(c_across(`1`:`4`)) - min(c_across(`1`:`4`)))

draws

# A tibble: 4,000 × 6
# Rowwise: 
   .draw   `1`   `2`   `3`   `4`  diff
   <int> <dbl> <dbl> <dbl> <dbl> <dbl>
 1     1  186.  177.  179.  180.  9.21
 2     2  179.  165.  178.  174. 14.0 
 3     3  177.  172.  185.  172. 13.3 
 4     4  173.  172.  164.  176. 11.5 
 5     5  168.  165.  179.  169. 13.9 
 6     6  162.  164.  166.  184. 21.9 
 7     7  179.  168.  176.  166. 13.3 
 8     8  176.  175.  180.  168. 11.6 
 9     9  183.  181.  176.  176.  6.74
10    10  163.  168.  176.  178. 14.8 
# ℹ 3,990 more rows
…
[1] 0.7825

5.4.3 Question 4

What is our posterior probability distribution of the height of the 3rd tallest man out of the next 100 we meet?

The same approach will work for almost any question.

fit_1 |> 
  add_predicted_draws(newdata = tibble(.rows = 100)) |>
  select(.row, .draw, .prediction) |> 
  pivot_wider(values_from = .prediction, names_from = .row)

# A tibble: 4,000 × 101
   .draw   `1`   `2`   `3`   `4`   `5`   `6`   `7`   `8`   `9`  `10`  `11`  `12`
   <int> <dbl> <dbl> <dbl> <dbl> <dbl> <dbl> <dbl> <dbl> <dbl> <dbl> <dbl> <dbl>
 1     1  183.  171.  173.  181.  179.  172.  176.  171.  165.  167.  168.  175.
 2     2  176.  201.  181.  175.  172.  178.  178.  172.  166.  178.  179.  189.
 3     3  180.  174.  166.  171.  172.  178.  175.  174.  180.  169.  172.  171.
 4     4  173.  168.  172.  183.  171.  181.  170.  188.  187.  166.  177.  169.
 5     5  174.  179.  172.  169.  179.  174.  181.  193.  200.  183.  169.  173.
 6     6  168.  186.  176.  176.  165.  169.  184.  179.  169.  186.  187.  186.
 7     7  169.  185.  183.  175.  183.  174.  167.  178.  179.  184.  176.  176.
 8     8  172.  174.  173.  171.  171.  172.  176.  181.  172.  174.  182.  172.
 9     9  173.  173.  179.  163.  170.  179.  175.  161.  172.  182.  168.  171.
10    10  169.  177.  163.  169.  173.  174.  172.  196.  166.  170.  174.  183.
# ℹ 3,990 more rows
# ℹ 88 more variables: `13` <dbl>, `14` <dbl>, `15` <dbl>, `16` <dbl>,
#   `17` <dbl>, `18` <dbl>, `19` <dbl>, `20` <dbl>, `21` <dbl>, `22` <dbl>,
#   `23` <dbl>, `24` <dbl>, `25` <dbl>, `26` <dbl>, `27` <dbl>, `28` <dbl>,
#   `29` <dbl>, `30` <dbl>, `31` <dbl>, `32` <dbl>, `33` <dbl>, `34` <dbl>,
#   `35` <dbl>, `36` <dbl>, `37` <dbl>, `38` <dbl>, `39` <dbl>, `40` <dbl>,
#   `41` <dbl>, `42` <dbl>, `43` <dbl>, `44` <dbl>, `45` <dbl>, `46` <dbl>, …
…
